{
  "project_info": {
    "project_number": "798575949623",
    "firebase_url": "https://c4chai-a3853.firebaseio.com",
    "project_id": "c4chai-a3853",
    "storage_bucket": "c4chai-a3853.appspot.com"
  },
  "client": [
    {
      "client_info": {
        "mobilesdk_app_id": "1:798575949623:android:49f04dedb8eb0ebc",
        "android_client_info": {
          "package_name": "com.daf.c4chai"
        }
      },
      "oauth_client": [
        {
          "client_id": "798575949623-k33i09nc82s0798rpsccsigph2cflgvo.apps.googleusercontent.com",
          "client_type": 3
        }
      ],
      "api_key": [
        {
          "current_key": "AIzaSyD7yXCryANOH4Uv7_QahXVbKYLVCyYJkxs"
        }
      ],
      "services": {
        "analytics_service": {
          "status": 1
        },
        "appinvite_service": {
          "status": 1,
          "other_platform_oauth_client": []
        },
        "ads_service": {
          "status": 2
        }
      }
    }
  ],
  "configuration_version": "1"
}